{
  "ReRoutes": [
    {
      "DownstreamPathTemplate": "/api/user",
      "DownstreamScheme": "http",
      "DownstreamHostAndPorts": [
        {
          "Host": "localhost",
          "Port": "58388"
        }
      ],
      "UpstreamPathTemplate": "/user",
      "UpstreamHttpMethod": [ "GET", "POST" ]
    },
    {
      "DownstreamPathTemplate": "/api/role",
      "DownstreamScheme": "http",
      "DownstreamHostAndPorts": [
        {
          "Host": "localhost",
          "Port": "54154"
        }
      ],
      "UpstreamPathTemplate": "/role",
      "UpstreamHttpMethod": [ "GET", "POST" ]
    }
    
  ]
}
